{
  "version": "1.0.0-*",
  "description": "LoremIpsumCMS.Tests Class Library",
  "authors": [ "nikla_000" ],
  "tags": [ "" ],
  "projectUrl": "",
  "licenseUrl": "",
  "frameworks": {
    "dnx451": { }
  },
  "commands": {
    "test": "xunit.runner.dnx"
  },
  "dependencies": {
    "LoremIpsumCMS": "1.0.0-*",
    "xunit": "2.1.0",
    "xunit.runner.dnx": "2.1.0-rc1-build204"
  }
}
